<?xml version="1.0" encoding="utf-8"?>
<!-- Generator: Adobe Illustrator 15.1.0, SVG Export Plug-In . SVG Version: 6.00 Build 0)  -->
<!DOCTYPE svg PUBLIC "-//W3C//DTD SVG 1.1//EN" "http://www.w3.org/Graphics/SVG/1.1/DTD/svg11.dtd">
<svg version="1.1" xmlns="http://www.w3.org/2000/svg" xmlns:xlink="http://www.w3.org/1999/xlink" x="0px" y="0px" width="425px"
	 height="425px" viewBox="0 0 425 425" enable-background="new 0 0 425 425" xml:space="preserve">
<g id="Layer_2_1_">
	<g>
		<path fill="#FFFFFF" d="M0,375c0,27.614,22.386,50,50,50h325c27.614,0,50-22.386,50-50V50c0-27.614-22.386-50-50-50H50
			C22.386,0,0,22.386,0,50V375z"/>
		<path fill="none" stroke="#000000" stroke-miterlimit="10" d="M0,375c0,27.614,22.386,50,50,50h325c27.614,0,50-22.386,50-50V50
			c0-27.614-22.386-50-50-50H50C22.386,0,0,22.386,0,50V375z"/>
	</g>
</g>
<g id="Layer_1">
	<g id="Layer_1_1_">
		<circle fill="#FFFFFF" stroke="#000000" stroke-width="60" stroke-miterlimit="10" cx="212.5" cy="212.5" r="150"/>
	</g>
	<g id="Layer_2">
		<path stroke="#000000" stroke-width="10" stroke-miterlimit="10" d="M237.5,47.634c0,5.449-5.033,9.866-11.24,9.866h-27.519
			c-6.208,0-11.241-4.417-11.241-9.866V17.366c0-5.449,5.033-9.866,11.241-9.866h27.519c6.207,0,11.24,4.417,11.24,9.866V47.634z"/>
		<path stroke="#000000" stroke-width="10" stroke-miterlimit="10" d="M237.5,407.634c0,5.449-5.033,9.866-11.24,9.866h-27.519
			c-6.208,0-11.241-4.417-11.241-9.866v-30.268c0-5.449,5.033-9.866,11.241-9.866h27.519c6.207,0,11.24,4.417,11.24,9.866V407.634z"
			/>
		<path stroke="#000000" stroke-width="10" stroke-miterlimit="10" d="M57.5,227.634c0,5.449-5.033,9.866-11.24,9.866H18.741
			c-6.208,0-11.241-4.417-11.241-9.866v-30.268c0-5.449,5.033-9.866,11.241-9.866H46.26c6.207,0,11.24,4.417,11.24,9.866V227.634z"
			/>
		<path stroke="#000000" stroke-width="10" stroke-miterlimit="10" d="M417.5,227.634c0,5.449-5.033,9.866-11.24,9.866h-27.52
			c-6.207,0-11.24-4.417-11.24-9.866v-30.268c0-5.449,5.033-9.866,11.24-9.866h27.52c6.207,0,11.24,4.417,11.24,9.866V227.634z"/>
	</g>
	<g id="Layer_5_copy">
		<path stroke="#000000" stroke-width="10" stroke-miterlimit="10" d="M151.717,57.222c2.725,4.719,0.574,11.061-4.801,14.165
			l-23.832,13.76c-5.376,3.104-11.943,1.795-14.668-2.924L93.282,56.009c-2.725-4.719-0.574-11.061,4.802-14.165l23.832-13.76
			c5.375-3.104,11.943-1.795,14.667,2.924L151.717,57.222z"/>
		<path stroke="#000000" stroke-width="10" stroke-miterlimit="10" d="M331.718,368.991c2.726,4.719,0.574,11.061-4.802,14.164
			l-23.832,13.76c-5.376,3.104-11.943,1.795-14.668-2.924l-15.134-26.214c-2.726-4.719-0.574-11.061,4.802-14.164l23.832-13.76
			c5.376-3.104,11.943-1.795,14.668,2.924L331.718,368.991z"/>
		<path stroke="#000000" stroke-width="10" stroke-miterlimit="10" d="M85.833,303.105c2.725,4.72,0.574,11.062-4.801,14.164
			L57.2,331.03c-5.376,3.104-11.943,1.795-14.668-2.925l-15.134-26.213c-2.725-4.719-0.575-11.061,4.802-14.164l23.832-13.76
			c5.375-3.104,11.943-1.795,14.667,2.924L85.833,303.105z"/>
		<path stroke="#000000" stroke-width="10" stroke-miterlimit="10" d="M397.602,123.106c2.726,4.719,0.574,11.061-4.801,14.165
			l-23.833,13.76c-5.375,3.104-11.941,1.795-14.667-2.924l-15.134-26.212c-2.725-4.719-0.574-11.061,4.801-14.165l23.833-13.76
			c5.375-3.104,11.942-1.795,14.667,2.924L397.602,123.106z"/>
	</g>
	<g id="Layer_5_copy_2">
		<path stroke="#000000" stroke-width="10" stroke-miterlimit="10" d="M82.221,108.416c4.719,2.725,6.028,9.292,2.924,14.667
			l-13.759,23.833c-3.104,5.376-9.446,7.526-14.165,4.801l-26.212-15.134c-4.719-2.725-6.027-9.292-2.924-14.667l13.759-23.833
			c3.104-5.375,9.445-7.526,14.165-4.801L82.221,108.416z"/>
		<path stroke="#000000" stroke-width="10" stroke-miterlimit="10" d="M393.991,288.416c4.719,2.725,6.026,9.292,2.924,14.667
			l-13.76,23.833c-3.104,5.376-9.445,7.525-14.164,4.802l-26.213-15.134c-4.72-2.725-6.027-9.292-2.925-14.669l13.76-23.831
			c3.104-5.376,9.445-7.525,14.165-4.802L393.991,288.416z"/>
		<path stroke="#000000" stroke-width="10" stroke-miterlimit="10" d="M148.106,354.301c4.719,2.725,6.027,9.291,2.924,14.667
			L137.271,392.8c-3.104,5.377-9.446,7.526-14.165,4.802l-26.213-15.134c-4.719-2.725-6.028-9.291-2.923-14.667l13.759-23.833
			c3.104-5.375,9.445-7.524,14.164-4.801L148.106,354.301z"/>
		<path stroke="#000000" stroke-width="10" stroke-miterlimit="10" d="M328.105,42.532c4.72,2.725,6.027,9.292,2.925,14.667
			L317.27,81.032c-3.104,5.375-9.444,7.526-14.164,4.801l-26.213-15.134c-4.719-2.725-6.026-9.292-2.925-14.667l13.761-23.833
			c3.104-5.375,9.444-7.526,14.164-4.801L328.105,42.532z"/>
	</g>
</g>
</svg>
