<?xml version="1.0" encoding="utf-8"?>
<!-- Generator: Adobe Illustrator 15.1.0, SVG Export Plug-In . SVG Version: 6.00 Build 0)  -->
<!DOCTYPE svg PUBLIC "-//W3C//DTD SVG 1.1//EN" "http://www.w3.org/Graphics/SVG/1.1/DTD/svg11.dtd">
<svg version="1.1" id="Layer_5" xmlns="http://www.w3.org/2000/svg" xmlns:xlink="http://www.w3.org/1999/xlink" x="0px" y="0px"
	 width="2975px" height="425px" viewBox="0 0 2975 425" enable-background="new 0 0 2975 425" xml:space="preserve">
<path fill="none" stroke="#000000" stroke-width="60" stroke-miterlimit="10" d="M2992,30"/>
<path fill="none" stroke="#000000" stroke-width="60" stroke-miterlimit="10" d="M2992,395"/>
<path fill="none" stroke="#000000" stroke-width="60" stroke-miterlimit="10" d="M-15,395.217"/>
<path fill="#FFFFFF" stroke="#000000" stroke-width="60" stroke-miterlimit="10" d="M2900,30.217
	c-91.604,91.605-90.786,274.214,0,365L77,395c91.605-91.604,90.787-274.213,0-365C527.167,30.036,2311.833,30.181,2900,30.217z"/>
<path fill="none" stroke="#000000" stroke-width="60" stroke-miterlimit="10" d="M-15,30.217"/>
</svg>
